{
  "expoServerPort": 19000,
  "packagerPort": 19001,
  "packagerPid": 11912,
  "expoServerNgrokUrl": "https://6m-awd.anukritijha.forgeviewer.exp.direct",
  "packagerNgrokUrl": "https://packager.6m-awd.anukritijha.forgeviewer.exp.direct",
  "ngrokPid": 1932
}